L1:LSC-DARM_ERR
73
54.7    0.006
60      0.2
108.119 0.12
115.5   0.05
120     0.2
131.89  0.15
137.64  0.07
138.19  0.07
141.76 0.007
143.0   0.04
154.01   0.06
162.37  0.1
168.120 0.2
180     0.3
189.02  0.008
190.683 0.006
191.89  0.2
197.65  0.12
240     0.3
280.9 0.7
300     0.3
329.23  0.01
329.34  0.02
329.42  0.01
335.42  0.01
335.59  0.01
342.931 0.01
343.09 0.04
343.48 0.04
343.62  0.04
344.42 0.04
346.64 0.06
346.808 0.01
346.822 0.01
346.91 0.025
346.97 0.025
347.04 0.025
360     0.3
396.7   0.006
420     0.35
480     0.35
540     0.45
648.28  0.006
648.314 0.007
648.374 0.006
685.89  0.03
686.19 0.04
686.825 0.01
687.05 0.03
687.32 0.03
688.87 0.03
693.425 0.03
693.689  0.015
693.764  0.015
693.915  0.03
693.983 0.03
694.09 0.03
777.891 0.004
1000.00 0.003
1029.518 0.03
1030.77 0.015
1031.15 0.015
1033.528 0.015
1040.35 0.025
1040.705  0.01
1040.735  0.01
1040.78 0.01
1041.026 0.02
1041.174 0.02
1041.274 0.02
1151.5  0.006
1555.782 0.005
1654.428 0.005
L0:PEM-LVEA_SEISX
0
L0:PEM-LVEA_SEISY
0
L0:PEM-LVEA_SEISZ
0
L0:PEM-MX_SEISX
0
L0:PEM-MX_SEISY
0
L0:PEM-MX_SEISZ
0
L0:PEM-MY_SEISX
0
L0:PEM-MY_SEISY
0
L0:PEM-MY_SEISZ
0
L0:PEM-EX_SEISX
0
L0:PEM-EX_SEISY
0
L0:PEM-EX_SEISZ
0
L0:PEM-EY_SEISX
0
L0:PEM-EY_SEISY
0
L0:PEM-EY_SEISZ
0
L0:PEM-LVEA_WIND
0
L0:PEM-LVEA_WDIR
0
L0:PEM-MX_WIND
0
L0:PEM-MX_WDIR
0
L0:PEM-MY_WIND
0
L0:PEM-MY_WDIR
0
L0:PEM-EX_WIND
0
L0:PEM-EX_WDIR
0
L0:PEM-EY_WIND
